PATNO,EVENT_NAME,SRDXDATE,FOPTRDX
3001,baseline,2017-03-15,PD
3002,baseline,2016-08-01,PD
3003,baseline,2016-06-26,PD
3010,baseline,2016-05-11,PD
3018,baseline,2016-06-14,PD
3023,baseline,2017-10-07,PD
3027,baseline,2018-03-08,PD
3028,baseline,2016-05-31,PD
3051,baseline,2015-09-13,PD
3052,baseline,2015-10-01,PD
3054,baseline,2015-12-05,PD
3056,baseline,2015-12-11,PD
3060,baseline,2015-09-11,PD
3062,baseline,2016-03-21,PD
3066,baseline,2015-09-22,PD
3067,baseline,2015-12-17,PD
3068,baseline,2015-11-20,PD
3077,baseline,2015-09-15,PD
3078,baseline,2016-11-04,PD
3083,baseline,2017-11-26,PD
3086,baseline,2016-01-12,PD
3088,baseline,2015-09-11,PD
3089,baseline,2015-10-01,PD
3102,baseline,2015-10-19,PD
3107,baseline,2015-11-09,PD
3108,baseline,2015-09-05,PD
3110,baseline,2015-08-28,PD
3111,baseline,2016-08-31,PD
3118,baseline,2015-09-24,PD
3119,baseline,2017-11-21,PD
3122,baseline,2015-09-14,PD
3123,baseline,2015-09-12,PD
3124,baseline,2015-09-22,PD
3125,baseline,2016-11-23,PD
3126,baseline,2015-12-15,PD
3127,baseline,2015-09-11,PD
3128,baseline,2015-11-24,PD
3130,baseline,2016-01-04,PD
3150,baseline,2015-09-21,PD
3154,baseline,2015-12-17,PD
3162,baseline,2015-12-15,PD
3166,baseline,2015-11-17,PD
3168,baseline,2016-04-29,PD
3173,baseline,2015-09-10,PD
3174,baseline,2015-09-10,PD
3175,baseline,2015-10-26,PD
3176,baseline,2015-09-30,PD
3180,baseline,2015-09-18,PD
3181,baseline,2016-03-30,PD
3182,baseline,2015-09-11,PD
3184,baseline,2015-10-01,PD
3185,baseline,2015-09-20,PD
3186,baseline,2016-07-07,PD
3190,baseline,2015-12-16,PD
3203,baseline,2015-11-16,PD
3205,baseline,2016-06-20,PD
3207,baseline,2015-09-11,PD
3211,baseline,2017-10-09,PD
3214,baseline,2016-06-29,PD
3218,baseline,2015-09-11,PD
3220,baseline,2015-09-18,PD
3223,baseline,2015-09-11,PD
3224,baseline,2016-08-08,PD
3225,baseline,2015-10-11,PD
3226,baseline,2015-10-28,PD
3228,baseline,2015-11-09,PD
3229,baseline,2015-09-18,PD
3230,baseline,2015-09-10,PD
3231,baseline,2015-09-30,PD
3234,baseline,2016-07-28,PD
3251,baseline,2016-06-28,PD
3252,baseline,2015-10-28,PD
3268,baseline,2016-04-12,PD
3269,baseline,2016-04-23,PD
3278,baseline,2017-10-24,PD
3280,baseline,2015-09-21,PD
3281,baseline,2016-09-19,PD
3282,baseline,2016-07-31,PD
3285,baseline,2017-11-09,PD
3305,baseline,2017-08-18,PD
3307,baseline,2017-01-30,PD
3308,baseline,2016-11-21,PD
3309,baseline,2017-01-19,PD
3312,baseline,2016-11-17,PD
3325,baseline,2016-11-28,PD
3328,baseline,2017-02-08,PD
3332,baseline,2017-01-26,PD
3354,baseline,2015-10-17,PD
3359,baseline,2015-09-14,PD
3364,baseline,2017-10-19,PD
3365,baseline,2015-10-08,PD
3367,baseline,2015-11-09,PD
3371,baseline,2017-10-12,PD
3372,baseline,2015-09-11,PD
3373,baseline,2018-07-04,PD
3374,baseline,2016-08-08,PD
3377,baseline,2015-09-11,PD
3380,baseline,2016-08-13,PD
3383,baseline,2015-10-19,PD
3385,baseline,2017-10-25,PD
3387,baseline,2016-07-30,PD
3400,baseline,2015-11-02,PD
3403,baseline,2015-12-16,PD
3409,baseline,2015-09-28,PD
3415,baseline,2018-07-29,PD
3418,baseline,2015-09-11,PD
3419,baseline,2016-04-11,PD
3420,baseline,2015-08-25,PD
3422,baseline,2015-11-17,PD
3423,baseline,2015-09-11,PD
3430,baseline,2015-10-05,PD
3431,baseline,2018-04-16,PD
3432,baseline,2016-11-05,PD
3433,baseline,2015-09-15,PD
3434,baseline,2015-10-18,PD
3435,baseline,2015-09-10,PD
3436,baseline,2016-05-23,PD
3439,baseline,2018-02-22,PD
3443,baseline,2015-09-18,PD
3444,baseline,2015-09-26,PD
3445,baseline,2015-09-10,PD
3446,baseline,2016-12-09,PD
3448,baseline,2015-10-02,PD
3451,baseline,2016-03-21,PD
3454,baseline,2015-12-10,PD
3459,baseline,2017-06-21,PD
3465,baseline,2015-10-19,PD
3470,baseline,2015-09-19,PD
3471,baseline,2015-09-22,PD
3472,baseline,2016-11-01,PD
3473,baseline,2015-09-28,PD
3475,baseline,2015-09-13,PD
3482,baseline,2015-11-13,PD
3500,baseline,2016-03-22,PD
3505,baseline,2016-04-14,PD
3507,baseline,2017-03-22,PD
3516,baseline,2016-03-21,PD
3522,baseline,2015-09-21,PD
3527,baseline,2018-03-28,PD
3528,baseline,2016-04-28,PD
3556,baseline,2015-09-28,PD
3557,baseline,2016-01-13,PD
3559,baseline,2015-11-06,PD
3564,baseline,2016-02-29,PD
3567,baseline,2015-09-10,PD
3574,baseline,2015-09-28,PD
3575,baseline,2015-09-20,PD
3577,baseline,2015-09-11,PD
3584,baseline,2016-06-15,PD
3585,baseline,2016-02-11,PD
3586,baseline,2016-08-30,PD
3587,baseline,2016-04-04,PD
3588,baseline,2015-09-13,PD
3591,baseline,2015-10-26,PD
3592,baseline,2016-01-16,PD
3601,baseline,2016-04-18,PD
3603,baseline,2016-02-04,PD
3604,baseline,2016-04-07,PD
3606,baseline,2016-08-01,PD
3607,baseline,2016-08-12,PD
3612,baseline,2016-01-27,PD
3622,baseline,2016-08-07,PD
3625,baseline,2017-10-30,PD
3629,baseline,2016-03-28,PD
3631,baseline,2016-02-09,PD
3632,baseline,2016-03-21,PD
3634,baseline,2017-02-17,PD
3638,baseline,2016-05-18,PD
3650,baseline,2016-03-21,PD
3654,baseline,2016-03-11,PD
3661,baseline,2015-11-16,PD
3664,baseline,2016-03-12,PD
3665,baseline,2016-04-14,PD
3666,baseline,2015-09-17,PD
3700,baseline,2017-12-14,PD
3701,baseline,2017-10-28,PD
3705,baseline,2018-02-11,PD
3709,baseline,2018-02-19,PD
3711,baseline,2018-06-01,PD
3900,baseline,2015-09-13,PD
3903,baseline,2016-06-27,PD
3911,baseline,2015-09-20,PD
3914,baseline,2015-09-12,PD
3951,baseline,2015-11-17,PD
3954,baseline,2015-10-28,PD
3957,baseline,2016-01-04,PD
3960,baseline,2016-05-17,PD
3961,baseline,2016-03-29,PD
3963,baseline,2016-06-15,PD
4001,baseline,2015-09-23,PD
4005,baseline,2016-04-14,PD
4011,baseline,2016-09-13,PD
4012,baseline,2015-09-28,PD
4021,baseline,2017-03-10,PD
4024,baseline,2015-09-11,PD
4025,baseline,2017-11-08,PD
4026,baseline,2016-05-17,PD
4029,baseline,2016-01-11,PD
4033,baseline,2018-03-21,PD
4034,baseline,2015-09-21,PD
4035,baseline,2016-08-03,PD
4037,baseline,2016-10-18,PD
4038,baseline,2016-08-16,PD
4051,baseline,2017-02-25,PD
4052,baseline,2015-10-11,PD
4054,baseline,2016-04-06,PD
4055,baseline,2015-09-12,PD
4056,baseline,2015-11-07,PD
4059,baseline,2015-09-19,PD
4071,baseline,2015-11-11,PD
4072,baseline,2015-12-05,PD
4073,baseline,2015-12-16,PD
4074,baseline,2016-05-10,PD
4076,baseline,2015-12-24,PD
4077,baseline,2015-11-11,PD
4082,baseline,2017-09-28,PD
4083,baseline,2018-01-18,PD
4091,baseline,2015-09-12,PD
4098,baseline,2016-05-25,PD
4099,baseline,2016-01-16,PD
4102,baseline,2015-11-30,PD
4106,baseline,2015-09-14,PD
4107,baseline,2016-07-31,PD
4108,baseline,2015-12-13,PD
4111,baseline,2015-10-05,PD
4115,baseline,2015-09-12,PD
4117,baseline,2016-12-01,PD
4122,baseline,2018-04-06,PD
4123,baseline,2016-05-31,PD
4124,baseline,2015-11-19,PD
4125,baseline,2015-11-21,PD
4126,baseline,2017-05-08,PD
14426,baseline,2016-07-28,PD
40002,baseline,2016-05-09,PD
40010,baseline,2016-08-01,PD
40240,baseline,2018-06-22,PD
40243,baseline,2017-11-02,PD
40273,baseline,2016-02-12,PD
40366,baseline,2016-06-01,PD
40550,baseline,2017-09-07,PD
40552,baseline,2016-08-21,PD
40554,baseline,2016-08-14,PD
40555,baseline,2017-07-13,PD
40560,baseline,2016-08-03,PD
40577,baseline,2017-08-01,PD
40585,baseline,2016-08-31,PD
40586,baseline,2018-02-03,PD
40671,baseline,2015-10-04,PD
40692,baseline,2016-08-05,PD
40702,baseline,2017-10-16,PD
40703,baseline,2017-10-05,PD
40704,baseline,2018-01-23,PD
40713,baseline,2016-09-01,PD
40733,baseline,2018-06-30,PD
40739,baseline,2017-11-06,PD
40740,baseline,2018-02-20,PD
40744,baseline,2018-04-25,PD
40800,baseline,2017-02-19,PD
40843,baseline,2017-06-24,PD
41037,baseline,2018-07-28,PD
41055,baseline,2018-06-08,PD
41172,baseline,2017-02-20,PD
41184,baseline,2017-02-14,PD
41399,baseline,2016-08-08,PD
41412,baseline,2017-06-14,PD
41426,baseline,2018-03-25,PD
41428,baseline,2016-08-13,PD
41432,baseline,2018-05-23,PD
41454,baseline,2018-04-10,PD
41455,baseline,2015-10-12,PD
41461,baseline,2016-09-07,PD
41467,baseline,2016-06-01,PD
41482,baseline,2015-11-17,PD
41484,baseline,2016-08-05,PD
41486,baseline,2015-10-25,PD
41488,baseline,2015-12-05,PD
41508,baseline,2017-07-17,PD
41513,baseline,2017-11-09,PD
41721,baseline,2018-06-08,PD
41749,baseline,2017-02-16,PD
41825,baseline,2017-10-05,PD
41965,baseline,2018-07-22,PD
41967,baseline,2016-08-06,PD
41971,baseline,2017-05-18,PD
41977,baseline,2016-08-17,PD
41986,baseline,2017-06-15,PD
41989,baseline,2016-07-30,PD
41994,baseline,2017-11-29,PD
42009,baseline,2017-02-20,PD
42017,baseline,2018-03-28,PD
42069,baseline,2017-02-24,PD
42082,baseline,2017-06-05,PD
42122,baseline,2017-12-28,PD
42206,baseline,2017-01-24,PD
42209,baseline,2017-01-08,PD
42378,baseline,2018-02-08,PD
42396,baseline,2018-04-13,PD
50027,baseline,2016-06-28,PD
50028,baseline,2015-10-01,PD
50044,baseline,2016-03-18,PD
50086,baseline,2015-12-29,PD
50088,baseline,2016-01-20,PD
50157,baseline,2017-05-01,PD
50159,baseline,2016-10-19,PD
50175,baseline,2016-12-13,PD
50192,baseline,2017-06-14,PD
50195,baseline,2016-11-13,PD
50238,baseline,2015-12-01,PD
50305,baseline,2016-08-29,PD
50319,baseline,2016-10-06,PD
50355,baseline,2016-12-10,PD
50358,baseline,2015-12-04,PD
50376,baseline,2015-10-01,PD
50418,baseline,2017-07-18,PD
50463,baseline,2018-05-01,PD
50485,baseline,2015-11-02,PD
50509,baseline,2017-09-22,PD
50525,baseline,2018-05-01,PD
50546,baseline,2016-11-05,PD
50586,baseline,2015-11-10,PD
50621,baseline,2015-12-29,PD
50701,baseline,2016-05-18,PD
50753,baseline,2016-12-15,PD
50860,baseline,2015-10-03,PD
50901,baseline,2015-10-19,PD
50916,baseline,2017-01-21,PD
50983,baseline,2017-10-16,PD
51186,baseline,2015-10-21,PD
51252,baseline,2016-01-06,PD
51334,baseline,2015-10-27,PD
51440,baseline,2016-12-07,PD
51500,baseline,2017-12-14,PD
51518,baseline,2016-08-10,PD
51544,baseline,2015-11-03,PD
51547,baseline,2016-01-18,PD
51551,baseline,2016-04-27,PD
51594,baseline,2016-01-05,PD
51595,baseline,2015-12-30,PD
51625,baseline,2016-02-29,PD
51632,baseline,2016-11-21,PD
51659,baseline,2015-11-04,PD
51670,baseline,2016-04-12,PD
51731,baseline,2015-11-13,PD
51856,baseline,2016-04-14,PD
51870,baseline,2015-12-04,PD
51904,baseline,2016-09-30,PD
51914,baseline,2016-11-05,PD
52062,baseline,2016-01-05,PD
52128,baseline,2016-02-29,PD
52146,baseline,2016-04-04,PD
52327,baseline,2015-10-06,PD
52530,baseline,2016-03-17,PD
52644,baseline,2016-03-17,PD
52678,baseline,2015-12-15,PD
52694,baseline,2017-05-17,PD
52746,baseline,2016-07-26,PD
52969,baseline,2016-05-31,PD
53060,baseline,2018-07-17,PD
53213,baseline,2016-09-01,PD
53308,baseline,2016-12-09,PD
53339,baseline,2016-03-18,PD
53422,baseline,2018-04-01,PD
53557,baseline,2016-10-17,PD
53595,baseline,2016-12-12,PD
53600,baseline,2016-05-30,PD
53756,baseline,2018-06-17,PD
53988,baseline,2016-03-17,PD
54072,baseline,2016-08-10,PD
54144,baseline,2016-04-04,PD
54161,baseline,2018-01-23,PD
54197,baseline,2016-05-30,PD
54265,baseline,2016-08-19,PD
54612,baseline,2017-02-04,PD
54695,baseline,2016-08-27,PD
54712,baseline,2016-08-26,PD
54724,baseline,2016-11-06,PD
55076,baseline,2017-02-21,PD
55083,baseline,2017-01-19,PD
55124,baseline,2016-08-10,PD
55198,baseline,2016-08-31,PD
55251,baseline,2016-09-29,PD
55395,baseline,2016-12-08,PD
55441,baseline,2016-09-07,PD
55610,baseline,2018-03-30,PD
55615,baseline,2016-06-13,PD
55725,baseline,2017-01-01,PD
55875,baseline,2016-08-27,PD
56405,baseline,2018-05-22,PD
56435,baseline,2016-11-07,PD
56558,baseline,2017-05-30,PD
56744,baseline,2016-09-13,PD
57037,baseline,2017-03-24,PD
57090,baseline,2017-05-26,PD
57127,baseline,2017-07-24,PD
57798,baseline,2018-06-30,PD
57869,baseline,2016-12-02,PD
57887,baseline,2017-02-05,PD
57969,baseline,2017-05-22,PD
58141,baseline,2017-10-04,PD
58420,baseline,2017-08-03,PD
58431,baseline,2017-02-23,PD
58438,baseline,2018-01-16,PD
58454,baseline,2017-05-17,PD
58510,baseline,2017-07-16,PD
58550,baseline,2017-07-26,PD
58671,baseline,2017-09-20,PD
58783,baseline,2017-09-21,PD
58951,baseline,2017-07-24,PD
59121,baseline,2017-11-30,PD
59507,baseline,2018-03-23,PD
59649,baseline,2017-11-25,PD
59724,baseline,2017-09-28,PD
59773,baseline,2017-09-04,PD
60107,baseline,2018-04-26,PD
70052,baseline,2018-03-11,PD
70188,baseline,2017-10-13,PD
70239,baseline,2017-07-18,PD
70313,baseline,2017-08-02,PD
70326,baseline,2018-01-17,PD
70463,baseline,2017-09-20,PD
70818,baseline,2018-04-04,PD
71189,baseline,2017-11-27,PD
71809,baseline,2017-11-09,PD
71978,baseline,2017-11-28,PD
72784,baseline,2017-12-14,PD
73115,baseline,2018-06-11,PD
73614,baseline,2018-02-05,PD
74034,baseline,2018-06-04,PD
74067,baseline,2018-05-31,PD
74817,baseline,2018-06-08,PD
